<svg class="tong" id="svg_tong" version="1.1"
	 x="0px" y="0px" width="115px" height="170px" viewBox="0 0 115 170"
	 xml:space="preserve" aria-hidden="true" >

	<mask id="mask" maskUnits="userSpaceOnUse">
		<rect width="115" height="170" x="5px" y="0px"  fill="#FFFFFF"  />
	</mask>
	<g>
		<path class="st0 shape" mask="url(#mask)" 
			d="M 0,60 C 40,45 70,52 85,60 110,75 100,110 75,100 41,94 17,97 0,100 Z">
			
		    <animate 
	            attributeName="d" 
		        dur="1000ms" 
		        repeatCount="indefinite"
	            keyTimes="0;
	                       .15;
	                       .30;
	                       .45;
	                       1"

	            calcMode="spline" 
	            keySplines=".65,.05,.36,1;
	             			 .65,.05,.36,1;
	             			 .65,.05,.36,1;
	                         0,0,1,1"
		        begin="svg_tong.mouseover"
		        end="svg_tong.mouseout" 

	            values="
	            M 0,60 C 40,45 70,52 85,60 110,75 100,110 75,100 41,94 17,97 0,100 Z;

				M 0,57 C 33,52 48,64 76,49 c 21,-9 34,25 -1,42 -23,9 -57,0 -75,9 z;

				M 0,60 C 40,45 70,52 85,60 110,75 100,110 75,100 41,94 17,97 0,100 Z;

				M 0,57 C 33,52 48,64 76,49 c 21,-9 34,25 -1,42 -23,9 -57,0 -75,9 z;

				M 0,60 C 40,45 70,52 85,60 110,75 100,110 75,100 41,94 17,97 0,100 Z

			"/>
		</path>

		<path class="st0"  mask="url(#mask)" 
			d="M 0.17,79 C 36,66 65,72 81,80">
			
	   		<animate 
	            attributeName="d" 
		        dur="1000ms" 
		        repeatCount="indefinite"
	            keyTimes="0;
	                       .15;
	                       .30;
	                       .45;
	                       1"

	            calcMode="spline" 
	            keySplines=".65,.05,.36,1;
	             			 .65,.05,.36,1;
	             			 .65,.05,.36,1;
	                         0,0,1,1"

		        begin="svg_tong.mouseover"
		        end="svg_tong.mouseout" 

	            values="M 0.17,79 C 36,66 65,72 81,80;

				M 0.17,79 C 30,66 65,85 80,62;

				M 0.17,79 C 36,66 65,72 81,80;

				M 0.17,79 C 30,66 65,85 80,62;

				M 0.17,79 C 36,66 65,72 81,80

			"/>
		</path>
	</g>

</svg>