<svg x='0px' y='0px' width='432.6px' height='408px' viewBox='0 0 432.6 408' style='enable-background:new 0 0 432.6 408;'
	 xml:space='preserve'  xmlns='http://www.w3.org/2000/svg'>
<style type="text/css">
	.stb{ fill:white; stroke: #a58538; stroke-width:2; stroke-miterlimit:10;}
</style>	 
<path class='stb' 
	d='M216.3,13.5c9,0,13,6.2,24.9,6.2h0.1c11.9,0,16-6.2,25-6.2l0,0c9,0,13.1,6.2,25,6.2l0,0
	c11.9,0,15.9-6.2,24.9-6.2h0c9,0,13,6.2,24.9,6.2h0c11.9,0,15.9-6.2,24.9-6.2l0.1,0c9,0,13.1,6.2,25,6.2h0.1C403,19.7,407,4,416,4
	l0,0c12.5,0,12.6,12.7,12.6,12.7c0,9-15.7,12.9-15.7,24.8v0.2c0,11.9,6.2,15.8,6.2,24.8l0,0.2c0,9-6.2,13-6.2,24.9l0,0.2
	c0,11.9,6.2,15.8,6.2,24.8v0.2c0,9-6.2,12.9-6.2,24.7v0.1c0,11.9,6.2,16,6.2,25l0,0c0,9-6.2,13.1-6.2,25v0c2,8.3,2.1,16.9,0.1,25.2
	l0,0c0,11.9,6.1,15.9,6.1,24.9l0,0c0,9-6.2,13.1-6.2,25v0.1c0,11.9,6.2,15.7,6.2,24.7v0.2c0,9-6.2,12.9-6.2,24.8l0,0.2
	c0,11.9,6.2,15.9,6.2,24.9l0,0.2c0,9-6.2,12.9-6.2,24.8v0.2c0,11.9,15.7,15.8,15.7,24.8c0,0-0.2,12.7-12.6,12.7l0,0
	c-9,0-13-15.7-24.9-15.7H391c-11.9,0-16,6.2-25,6.2l-0.1,0c-9,0-13-6.2-24.9-6.2h0c-11.9,0-15.9,6.2-24.9,6.2h0
	c-9,0-13.1-6.2-24.9-6.2l0,0c-11.9,0-16,6.2-25,6.2l0,0c-9,0-13.1-6.2-25-6.2h-0.1c-11.9,0-15.7,6.2-24.7,6.2l-0.1,0
	c-9,0-13-6.2-24.9-6.2h-0.1c-11.9,0-16,6.2-25,6.2l0,0c-9,0-13.1-6.2-25-6.2l0,0c-11.9,0-15.9,6.2-24.9,6.2h0c-9,0-13-6.2-24.9-6.2
	h0c-11.9,0-15.9,6.2-24.9,6.2l-0.1,0c-9,0-13.1-6.2-25-6.2h-0.1c-11.9,0-15.9,15.7-24.9,15.7l0,0C4.2,404,4,391.3,4,391.3
	c0-9,15.7-12.9,15.7-24.8v-0.2c0-11.9-6.2-15.8-6.2-24.8l0-0.2c0-9,6.2-13,6.2-24.9l0-0.2c0-11.9-6.2-15.8-6.2-24.8v-0.2
	c0-9,6.2-12.9,6.2-24.7v-0.1c0-11.9-6.2-16-6.2-25l0,0c0-9,6.1-13.1,6.1-24.9l0,0c-2-8.3-1.9-16.9,0.1-25.2l0,0
	c0-11.9-6.2-16-6.2-25l0,0c0-9,6.2-13.1,6.2-25v-0.1c0-11.9-6.2-15.7-6.2-24.7v-0.2c0-9,6.2-12.9,6.2-24.8l0-0.2
	c0-11.9-6.2-15.9-6.2-24.9l0-0.2c0-9,6.2-12.9,6.2-24.8v-0.2C19.7,29.6,4,25.7,4,16.7C4,16.7,4.2,4,16.6,4l0,0
	c9,0,13,15.7,24.9,15.7h0.1c11.9,0,16-6.2,25-6.2l0.1,0c9,0,13,6.2,24.9,6.2h0c11.9,0,15.9-6.2,24.9-6.2h0c9,0,13.1,6.2,24.9,6.2
	l0,0c11.9,0,16-6.2,25-6.2l0,0c9,0,13.1,6.2,25,6.2h0.1c11.9,0,15.5-6.2,24.5-6.2H216.3'/>
</svg>
